{
  "logging": {
    "level": "info"
  },
  "paths":{
    "modules_directory": "modules",
    "objects_directory": "objects",
    "components_directory": "components"
  },
  "components": [
    "DBManager",
    "BlueprintManager",
    "ModuleManager",
    "ServiceManager",
    "StatusMonitor",
    "HostManager",
    "RestAPI"
  ],
  "datastore": {
    "configuration": {
      "mysql": {
        "driver": "mysql",
        "host": "10.0.0.2",
        "database": "pymon2",
        "user": "root",
        "password": "password"
      }
    }
  }
}